<svg xmlns="http://www.w3.org/2000/svg" width="66.728" height="70" viewBox="0 0 66.728 70">
  <g id="check-icon" transform="translate(-1.635 0)">
    <g id="Group_43" data-name="Group 43">
      <g id="Group_42" data-name="Group 42">
        <path id="Path_587" data-name="Path 587" d="M26.474,70a6.972,6.972,0,0,1-5.557-2.764L3.049,43.639a6.971,6.971,0,0,1,11.116-8.414L25.917,50.743,55.474,3.285a6.971,6.971,0,1,1,11.834,7.37L32.392,66.715a6.967,6.967,0,0,1-5.6,3.279C26.685,70,26.58,70,26.474,70Z" fill="#21c0d0"/>
      </g>
    </g>
  </g>
</svg>
