<svg xmlns="http://www.w3.org/2000/svg" width="9.721" height="9.721" viewBox="0 0 9.721 9.721">
  <path id="reload-icon" d="M1.985,3.923A4.874,4.874,0,0,1,5.957,1.5a4.261,4.261,0,0,1,4.264,4.361,4.323,4.323,0,0,1-4.264,4.361,4.321,4.321,0,0,1-3.2-1.454M1.5,1.5V3.923a.458.458,0,0,0,.485.485H4.407" transform="translate(-1 -1)" fill="none" stroke="#5f01db" stroke-linecap="round" stroke-width="1"/>
</svg>
