<svg xmlns="http://www.w3.org/2000/svg" width="150.782" height="129.242" viewBox="0 0 150.782 129.242">
  <g id="Layer_2" data-name="Layer 2" transform="translate(-2 -4)">
    <path id="Path_614" data-name="Path 614" d="M147.4,25.54H131.242V9.385A5.385,5.385,0,0,0,125.857,4H7.385A5.385,5.385,0,0,0,2,9.385v96.931A5.385,5.385,0,0,0,7.385,111.7H23.54v16.155a5.385,5.385,0,0,0,5.385,5.385H147.4a5.385,5.385,0,0,0,5.385-5.385V30.925A5.385,5.385,0,0,0,147.4,25.54ZM12.77,100.931V14.77h107.7V25.54H28.925a5.385,5.385,0,0,0-5.385,5.385v70.006ZM55.851,47.081a10.77,10.77,0,1,1-10.77,10.77A10.77,10.77,0,0,1,55.851,47.081Zm74.8,61.713a5.385,5.385,0,0,1-4.793,2.908H50.466a5.4,5.4,0,0,1-4.308-8.616l16.155-21.54a5.385,5.385,0,0,1,6.731-1.562l7.27,3.608L95.108,64.8a5.357,5.357,0,0,1,8.185.7l26.925,37.7A5.385,5.385,0,0,1,130.65,108.794Z" fill="#69b7e3"/>
  </g>
</svg>
